Collaborative Project jfq
…
## Analysis of Variance Table
## 
## Response: Estimate
##            Df Sum Sq Mean Sq F value  Pr(>F)  
## Company    20   4983  249.16  1.8427 0.01527 *
## Residuals 394  53274  135.21                  
## ---
## Signif. codes:  0 '***' 0.001 '**' 0.01 '*' 0.05 '.' 0.1 ' ' 1

OvPerf<- cleanCollab%>%
  group_by(Company, Variety)%>%
  summarize(mean=mean(Estimate))
OvPerf 

## # A tibble: 130 x 3
## # Groups:   Company [21]
##    Company  Variety  mean
##    <fct>    <fct>   <dbl>
##  1 AgriMAXX 413     102. 
##  2 AgriMAXX 438      99.6
##  3 AgriMAXX 444      94.6
##  4 AgriMAXX 446      94.8
##  5 AgriMAXX 454      91.2
##  6 AgriMAXX 463      94.0
##  7 AgriMAXX 473      95.1
##  8 AgriMAXX 475      96.5
##  9 AgriMAXX 480      88.3
## 10 AgriMAXX 485      88.8
## #  with 120 more rows
…
#anova(vlm)
#anova(vBellm) #sig
#anova(vElklm) #sig
#anova(vHamplm) #sig
#anova(vNeolm) #sig
#anova(vPelm) #sig
#anova(vUrblm) #sig

OvPerfBel<-Belleville %>%
  group_by(Loc, EntryID)%>%
  summarize(mean=mean(Estimate))%>%
  arrange(mean)
OvPerfBel

## # A tibble: 62 x 3
## # Groups:   Loc [1]
##    Loc             EntryID               mean
##    <fct>           <fct>                <dbl>
##  1 Belleville_2019 ProHarvest_317        60.3
##  2 Belleville_2019 Limagrain_L11713      62.8
##  3 Belleville_2019 Dyna-Gro_WX19714      66.5
##  4 Belleville_2019 GROWMARK_FS_601       67.2
##  5 Belleville_2019 KWS_Cereals_KWS19X03  67.4
##  6 Belleville_2019 AgriMAXX_485          68.2
##  7 Belleville_2019 Hoffman_Seed_H7W28    69.8
##  8 Belleville_2019 Croplan_CP8550        71.4
##  9 Belleville_2019 Hoffman_Seed_H7W16    71.7
## 10 Belleville_2019 AgriPro_SY_547        72.0
## #  with 52 more rows

OvPerfElk<- Elkville%>%
  group_by(Loc, EntryID)%>%
  summarize(mean=mean(Estimate))%>%
  arrange(mean)
OvPerfElk

## # A tibble: 62 x 3
## # Groups:   Loc [1]
##    Loc           EntryID             mean
##    <fct>         <fct>              <dbl>
##  1 Elkville_2019 ProHarvest_286      83.3
##  2 Elkville_2019 Go_Wheat_EXP18-1    86.2
##  3 Elkville_2019 AgriMAXX_Exp_1905   89.7
##  4 Elkville_2019 Hoffman_Seed_H7W16  89.9
##  5 Elkville_2019 Dyna-Gro_9980       90.2
##  6 Elkville_2019 ProHarvest_317      90.5
##  7 Elkville_2019 AgriMAXX_Exp_1906   93.5
##  8 Elkville_2019 AgriMAXX_485        93.6
##  9 Elkville_2019 Dyna-Gro_9862       94.2
## 10 Elkville_2019 GROWMARK_FS_599     94.4
## #  with 52 more rows

OvPerfHamp<- Hampshire%>%
  group_by(Loc, EntryID)%>%
  summarize(mean=mean(Estimate))%>%
  arrange(mean)
OvPerfHamp

## # A tibble: 56 x 3
## # Groups:   Loc [1]
##    Loc            EntryID               mean
##    <fct>          <fct>                <dbl>
##  1 Hampshire_2019 Kratz_Farms_KF_15334  97.0
##  2 Hampshire_2019 Kratz_Farms_KF_553    98.7
##  3 Hampshire_2019 GROWMARK_FS_601      102. 
##  4 Hampshire_2019 KWS_Cereals_KWS19X09 102. 
##  5 Hampshire_2019 ProHarvest_286       102. 
##  6 Hampshire_2019 Kratz_Farms_KF_727   104. 
##  7 Hampshire_2019 LEWIS_851            105. 
##  8 Hampshire_2019 LEWIS_833            105. 
##  9 Hampshire_2019 AgriMAXX_438         107. 
## 10 Hampshire_2019 AgriMAXX_Exp_1902    107. 
## #  with 46 more rows

OvPerfNeo<- Neoga%>%
  group_by(Loc, EntryID)%>%
  summarize(mean=mean(Estimate))%>%
  arrange(mean)
OvPerfNeo

## # A tibble: 60 x 3
## # Groups:   Loc [1]
##    Loc        EntryID                          mean
##    <fct>      <fct>                           <dbl>
##  1 Neoga_2018 GROWMARK_FS_604                  79.4
##  2 Neoga_2018 AgriMAXX_485                     79.8
##  3 Neoga_2018 Hoffman_Seed_H7W17               82.3
##  4 Neoga_2018 Hoffman_Seed_H7W28               84.5
##  5 Neoga_2018 BioTown_Seeds_D496W              84.5
##  6 Neoga_2018 Limagrain_L11617                 85.1
##  7 Neoga_2018 Kitchen_Seed_Company_KSC_416     85.2
##  8 Neoga_2018 Miller_Bros_Farm_and_Fert._L214  85.7
##  9 Neoga_2018 Dyna-Gro_9862                    85.8
## 10 Neoga_2018 AgriMAXX_486                     86.1
## #  with 50 more rows

OvPerfPe<- Perry%>%
  group_by(Loc, EntryID)%>%
  summarize(mean=mean(Estimate))%>%
  arrange(mean)
OvPerfPe

## # A tibble: 56 x 3
## # Groups:   Loc [1]
##    Loc        EntryID               mean
##    <fct>      <fct>                <dbl>
##  1 Perry_2019 Kratz_Farms_KF_15334  79.4
##  2 Perry_2019 LEWIS_828             82.7
##  3 Perry_2019 LEWIS_833             83.7
##  4 Perry_2019 AgriPro_SY_100        84.2
##  5 Perry_2019 AgriMAXX_444          84.5
##  6 Perry_2019 AgriPro_SY_547        84.7
##  7 Perry_2019 ProHarvest_317        84.7
##  8 Perry_2019 Dyna-Gro_9862         85.0
##  9 Perry_2019 KWS_Cereals_KWS19X03  85.3
## 10 Perry_2019 Kratz_Farms_KF_667    85.7
## #  with 46 more rows

OvPerfUrb<- Urbana%>%
  group_by(Loc, EntryID)%>%
  summarize(mean=mean(Estimate))%>%
  arrange(mean)
OvPerfUrb

## # A tibble: 47 x 3
## # Groups:   Loc [1]
##    Loc         EntryID                       mean
##    <fct>       <fct>                        <dbl>
##  1 Urbana_2018 LEWIS_851                     87.6
##  2 Urbana_2018 Dyna-Gro_9862                 87.8
##  3 Urbana_2018 Kratz_Farms_KF_15334          88.1
##  4 Urbana_2018 GROWMARK_WX18A                89.0
##  5 Urbana_2018 Kitchen_Seed_Company_KSC_418  89.1
##  6 Urbana_2018 Dyna-Gro_9750                 89.2
##  7 Urbana_2018 GROWMARK_FS_619               89.3
##  8 Urbana_2018 Green_Valley_628              90.3
##  9 Urbana_2018 AgriMAXX_Exp_1884             90.6
## 10 Urbana_2018 AgriMAXX_463                  90.7
## #  with 37 more rows
…
